<svg width="12" height="10" viewBox="0 0 12 10" fill="none" xmlns="http://www.w3.org/2000/svg">
<g opacity="0.2">
<path d="M0.00012207 4.64461H10.4133" stroke="#464185" stroke-width="1.04132"/>
<path d="M6.76868 1L10.4133 4.64463L6.76868 8.28926" stroke="#464185" stroke-width="1.04132" stroke-linecap="square"/>
</g>
</svg>
