<svg width="16" height="19" viewBox="0 0 16 19" fill="none" xmlns="http://www.w3.org/2000/svg">
<rect x="1.00006" y="4.14526" width="13.63" height="13.63" stroke="#413382" stroke-width="1.04846"/>
<path d="M10.9604 4.14537C10.9604 2.40823 9.55219 1 7.81505 1C6.07791 1 4.66968 2.40823 4.66968 4.14537" stroke="#413382" stroke-width="1.04846"/>
</svg>
