<svg width="38" height="38" viewBox="0 0 38 38" fill="none" xmlns="http://www.w3.org/2000/svg">
<path fill-rule="evenodd" clip-rule="evenodd" d="M18.8722 37.7445C29.2951 37.7445 37.7445 29.2951 37.7445 18.8722C37.7445 8.44939 29.2951 0 18.8722 0C8.44939 0 0 8.44939 0 18.8722C0 29.2951 8.44939 37.7445 18.8722 37.7445Z" fill="#EBE5F6"/>
<path fill-rule="evenodd" clip-rule="evenodd" d="M23.0662 15.7268C23.6452 15.7268 24.1146 15.2574 24.1146 14.6783C24.1146 14.0993 23.6452 13.6299 23.0662 13.6299C22.4871 13.6299 22.0177 14.0993 22.0177 14.6783C22.0177 15.2574 22.4871 15.7268 23.0662 15.7268ZM15.727 14.6784C15.727 15.2574 15.2576 15.7268 14.6786 15.7268C14.0995 15.7268 13.6301 15.2574 13.6301 14.6784C13.6301 14.0993 14.0995 13.6299 14.6786 13.6299C15.2576 13.6299 15.727 14.0993 15.727 14.6784ZM15.727 23.066C15.727 23.6451 15.2576 24.1145 14.6785 24.1145C14.0995 24.1145 13.6301 23.6451 13.6301 23.066C13.6301 22.487 14.0995 22.0175 14.6785 22.0175C15.2576 22.0175 15.727 22.487 15.727 23.066ZM24.1146 23.066C24.1146 23.6451 23.6452 24.1145 23.0662 24.1145C22.4871 24.1145 22.0177 23.6451 22.0177 23.066C22.0177 22.487 22.4871 22.0175 23.0662 22.0175C23.6452 22.0175 24.1146 22.487 24.1146 23.066Z" fill="#413382"/>
</svg>
